solid MeshRefinement003
 facet normal -1.0 0.0 0.0
  outer loop
   vertex -0.2 0.1 0.0
   vertex -0.2 -0.1 0.1
   vertex -0.2 0.1 0.1
  endloop
 endfacet
 facet normal -1.0 0.0 0.0
  outer loop
   vertex -0.2 -0.1 0.0
   vertex -0.2 -0.1 0.1
   vertex -0.2 0.1 0.0
  endloop
 endfacet
 facet normal 1.0 -0.0 0.0
  outer loop
   vertex 0.2 -0.1 0.1
   vertex 0.2 0.1 0.0
   vertex 0.2 0.1 0.1
  endloop
 endfacet
 facet normal 1.0 0.0 0.0
  outer loop
   vertex 0.2 -0.1 0.1
   vertex 0.2 -0.1 0.0
   vertex 0.2 0.1 0.0
  endloop
 endfacet
 facet normal 0.0 -1.0 0.0
  outer loop
   vertex 0.2 -0.1 0.0
   vertex 0.2 -0.1 0.1
   vertex -0.2 -0.1 0.0
  endloop
 endfacet
 facet normal 0.0 -1.0 0.0
  outer loop
   vertex -0.2 -0.1 0.0
   vertex 0.2 -0.1 0.1
   vertex -0.2 -0.1 0.1
  endloop
 endfacet
 facet normal 0.0 1.0 0.0
  outer loop
   vertex 0.2 0.1 0.1
   vertex 0.2 0.1 0.0
   vertex -0.2 0.1 0.0
  endloop
 endfacet
 facet normal 0.0 1.0 0.0
  outer loop
   vertex 0.2 0.1 0.1
   vertex -0.2 0.1 0.0
   vertex -0.2 0.1 0.1
  endloop
 endfacet
 facet normal 0.0 0.0 -1.0
  outer loop
   vertex -0.2 0.1 0.0
   vertex 0.2 0.1 0.0
   vertex -0.2 -0.1 0.0
  endloop
 endfacet
 facet normal 0.0 0.0 -1.0
  outer loop
   vertex -0.2 -0.1 0.0
   vertex 0.2 0.1 0.0
   vertex 0.2 -0.1 0.0
  endloop
 endfacet
 facet normal 0.0 0.0 1.0
  outer loop
   vertex 0.2 0.1 0.1
   vertex -0.2 0.1 0.1
   vertex -0.2 -0.1 0.1
  endloop
 endfacet
 facet normal 0.0 0.0 1.0
  outer loop
   vertex 0.2 0.1 0.1
   vertex -0.2 -0.1 0.1
   vertex 0.2 -0.1 0.1
  endloop
 endfacet
endsolid MeshRefinement003
