# vtk DataFile Version 3.0
vtk output
ASCII
DATASET POLYDATA
POINTS 398 float
3.10307e-19 -8.73318e-15 0
0.000251913 -0.000391788 0
0.000251913 0.000391788 0
0.0899461 -1.73548e-13 0.0846667
0.000650595 -0.000658774 0
0.000650595 0.000658774 0
0.00107546 -0.000882808 0
0.00107546 0.000882808 0
0.00150882 -0.00109011 0
0.00150882 0.00109011 0
0.0019439 -0.00129377 0
0.0019439 0.00129377 0
0.00237547 -0.00150474 0
0.00237547 0.00150474 0
0.002795 -0.00173849 0
0.002795 0.00173849 0
0.00430022 -0.00213784 0
0.00430022 0.00213784 0
0.0081926 -0.0028854 0
0.0081926 0.0028854 0
0.0136865 -0.00363622 0
0.0136865 0.00363622 0
0.0201605 -0.00424935 0
0.0201605 0.00424935 0
0.0273466 -0.00485335 0
0.0273466 0.00485335 0
0.0352666 -0.00546713 0
0.0352666 0.00546713 0
0.0439621 -0.0060752 0
0.0439621 0.0060752 0
0.0534956 -0.00666676 0
0.0534956 0.00666676 0
0.0636532 -0.0072046 0
0.0636532 0.0072046 0
0.0741947 -0.0077326 0
0.0741947 0.0077326 0
0.0850709 -0.00823063 0
0.0850709 0.00823063 0
0.0962846 -0.00867793 0
0.0962846 0.00867793 0
0.107823 -0.00908608 0
0.107823 0.00908608 0
0.119663 -0.00946382 0
0.119663 0.00946382 0
0.131783 -0.0098038 0
0.131783 0.0098038 0
0.179892 -3.25397e-13 0.169333
0.144153 -0.0101114 0
0.144153 0.0101114 0
0.156746 -0.0103839 0
0.156746 0.0103839 0
0.169528 -0.0106184 0
0.169528 0.0106184 0
0.182465 -0.0108126 0
0.182465 0.0108126 0
0.195523 -0.0109663 0
0.195523 0.0109663 0
0.208662 -0.0110797 0
0.208662 0.0110797 0
0.221846 -0.0111513 0
0.221846 0.0111513 0
0.235035 -0.0111834 0
0.235035 0.0111834 0
0.24819 -0.0111703 0
0.24819 0.0111703 0
0.269838 -4.64277e-13 0.254
0.261274 -0.0110993 0
0.261274 0.0110993 0
0.274247 -0.0109756 0
0.274247 0.0109756 0
0.287075 -0.0108054 0
0.287075 0.0108054 0
0.299722 -0.0105904 0
0.299722 0.0105904 0
0.312155 -0.0103341 0
0.312155 0.0103341 0
0.324345 -0.0100381 0
0.324345 0.0100381 0
0.336263 -0.00971324 0
0.336263 0.00971324 0
0.347886 -0.00936387 0
0.347886 0.00936387 0
0.35919 -0.0089956 0
0.35919 0.0089956 0
0.370157 -0.00861707 0
0.370157 0.00861707 0
0.380772 -0.00822928 0
0.380772 0.00822928 0
0.359784 -5.90191e-13 0.338667
0.391021 -0.00783692 0
0.391021 0.00783692 0
0.400894 -0.00744265 0
0.400894 0.00744265 0
0.410385 -0.00704857 0
0.410385 0.00704857 0
0.419489 -0.00665851 0
0.419489 0.00665851 0
0.428204 -0.00627279 0
0.428204 0.00627279 0
0.43653 -0.00589388 0
0.43653 0.00589388 0
0.444471 -0.00552676 0
0.444471 0.00552676 0
0.452031 -0.00517362 0
0.452031 0.00517362 0
0.459216 -0.00483228 0
0.459216 0.00483228 0
0.466034 -0.00450565 0
0.466034 0.00450565 0
0.472494 -0.00419622 0
0.472494 0.00419622 0
0.478605 -0.00390515 0
0.478605 0.00390515 0
0.48438 -0.00363078 0
0.48438 0.00363078 0
0.489829 -0.00337189 0
0.489829 0.00337189 0
0.494965 -0.00312756 0
0.494965 0.00312756 0
0.449731 -7.03136e-13 0.423333
0.499799 -0.00289698 0
0.499799 0.00289698 0
0.504346 -0.00267939 0
0.504346 0.00267939 0
0.508617 -0.00247417 0
0.508617 0.00247417 0
0.512625 -0.00228101 0
0.512625 0.00228101 0
0.516384 -0.00209957 0
0.516384 0.00209957 0
0.519906 -0.00192946 0
0.519906 0.00192946 0
0.523203 -0.00177022 0
0.523203 0.00177022 0
0.526287 -0.00162137 0
0.526287 0.00162137 0
0.52917 -0.00148239 0
0.52917 0.00148239 0
0.531864 -0.00135276 0
0.531864 0.00135276 0
0.534379 -0.00123185 0
0.534379 0.00123185 0
0.536726 -0.00111909 0
0.536726 0.00111909 0
0.538915 -0.00101396 0
0.538915 0.00101396 0
0.540956 -0.000915999 0
0.540956 0.000915999 0
0.542858 -0.000824742 0
0.542858 0.000824742 0
0.544629 -0.000739761 0
0.544629 0.000739761 0
0.546278 -0.000660651 0
0.546278 0.000660651 0
0.547813 -0.00058703 0
0.547813 0.00058703 0
0.549241 -0.000518537 0
0.549241 0.000518537 0
0.550569 -0.000454833 0
0.550569 0.000454833 0
0.551804 -0.000395599 0
0.551804 0.000395599 0
0.552951 -0.000340536 0
0.552951 0.000340536 0
0.554018 -0.000289361 0
0.554018 0.000289361 0
0.555009 -0.000241812 0
0.555009 0.000241812 0
0.55593 -0.00019764 0
0.55593 0.00019764 0
0.556785 -0.000156614 0
0.556785 0.000156614 0
0.557579 -0.000118517 0
0.557579 0.000118517 0
0.558316 -8.31454e-05 0
0.558316 8.31454e-05 0
0.559 -5.031e-05 0
0.559 5.031e-05 0
0.559 1.115e-16 0
0.559 -7.18714e-06 0
0.559 7.18714e-06 0
0.559 -1.43743e-05 0
0.559 1.43743e-05 0
0.559 -2.15614e-05 0
0.559 2.15614e-05 0
0.559 -2.87486e-05 0
0.559 2.87486e-05 0
0.559 -3.59357e-05 0
0.559 3.59357e-05 0
0.559 -4.31229e-05 0
0.559 4.31229e-05 0
0.627828 -4.84094e-05 0.0846667
0.627828 4.84094e-05 0.0846667
0.539677 -8.03114e-13 0.508
0.696657 -4.65088e-05 0.169333
0.696657 4.65088e-05 0.169333
0.765485 -4.46082e-05 0.254
0.765485 4.46082e-05 0.254
0.629623 -8.90124e-13 0.592667
0.834313 -4.27076e-05 0.338667
0.834313 4.27076e-05 0.338667
0.719569 -9.64167e-13 0.677333
0.903142 -4.0807e-05 0.423333
0.903142 4.0807e-05 0.423333
0.809515 -1.02524e-12 0.762
0.97197 -3.89064e-05 0.508
0.97197 3.89064e-05 0.508
1.0408 -3.70058e-05 0.592667
1.0408 3.70058e-05 0.592667
0.809681 -0.00025858 0.762
0.809681 0.00025858 0.762
0.809944 -0.000434791 0.762
0.809944 0.000434791 0.762
0.810225 -0.000582653 0.762
0.810225 0.000582653 0.762
0.810511 -0.000719474 0.762
0.810511 0.000719474 0.762
0.810798 -0.000853887 0.762
0.810798 0.000853887 0.762
0.811083 -0.00099313 0.762
0.811083 0.00099313 0.762
0.81136 -0.0011474 0.762
0.81136 0.0011474 0.762
0.812353 -0.00141097 0.762
0.812353 0.00141097 0.762
0.814922 -0.00190436 0.762
0.814922 0.00190436 0.762
0.818548 -0.0023999 0.762
0.818548 0.0023999 0.762
0.822821 -0.00280457 0.762
0.822821 0.00280457 0.762
0.827564 -0.00320321 0.762
0.827564 0.00320321 0.762
0.832791 -0.00360831 0.762
0.832791 0.00360831 0.762
0.83853 -0.00400963 0.762
0.83853 0.00400963 0.762
0.844822 -0.00440006 0.762
0.844822 0.00440006 0.762
0.851526 -0.00475503 0.762
0.851526 0.00475503 0.762
0.858483 -0.00510351 0.762
0.858483 0.00510351 0.762
0.865662 -0.00543221 0.762
0.865662 0.00543221 0.762
0.873063 -0.00572743 0.762
0.873063 0.00572743 0.762
0.880678 -0.00599681 0.762
0.880678 0.00599681 0.762
0.888493 -0.00624612 0.762
0.888493 0.00624612 0.762
0.896492 -0.00647051 0.762
0.896492 0.00647051 0.762
0.904656 -0.00667349 0.762
0.904656 0.00667349 0.762
0.912967 -0.00685334 0.762
0.912967 0.00685334 0.762
0.921403 -0.00700817 0.762
0.921403 0.00700817 0.762
0.929942 -0.00713632 0.762
0.929942 0.00713632 0.762
1.10963 -3.51052e-05 0.677333
1.10963 3.51052e-05 0.677333
0.93856 -0.00723774 0.762
0.93856 0.00723774 0.762
0.947232 -0.00731261 0.762
0.947232 0.00731261 0.762
0.955933 -0.00735986 0.762
0.955933 0.00735986 0.762
0.964638 -0.00738103 0.762
0.964638 0.00738103 0.762
0.973321 -0.00737239 0.762
0.973321 0.00737239 0.762
0.981956 -0.00732554 0.762
0.981956 0.00732554 0.762
0.990518 -0.00724392 0.762
0.990518 0.00724392 0.762
0.998985 -0.00713156 0.762
0.998985 0.00713156 0.762
1.00733 -0.00698968 0.762
1.00733 0.00698968 0.762
1.01554 -0.0068205 0.762
1.01554 0.0068205 0.762
1.02358 -0.00662512 0.762
1.02358 0.00662512 0.762
1.03145 -0.00641074 0.762
1.03145 0.00641074 0.762
1.03912 -0.00618015 0.762
1.03912 0.00618015 0.762
1.04658 -0.00593709 0.762
1.04658 0.00593709 0.762
1.05382 -0.00568727 0.762
1.05382 0.00568727 0.762
1.10963 7.93306e-17 0.677333
1.17845 -4.74351e-06 0.762
1.17846 7.52199e-17 0.762
1.10963 -5.01503e-06 0.677333
1.17846 -9.48703e-06 0.762
1.17846 -3.32046e-05 0.762
1.17846 3.32046e-05 0.762
1.06082 -0.00543132 0.762
1.06082 0.00543132 0.762
1.06759 -0.00517237 0.762
1.06759 0.00517237 0.762
1.07411 -0.00491215 0.762
1.07411 0.00491215 0.762
1.08037 -0.00465206 0.762
1.08037 0.00465206 0.762
1.08638 -0.00439462 0.762
1.08638 0.00439462 0.762
1.09213 -0.00414004 0.762
1.09213 0.00414004 0.762
1.09762 -0.00388996 0.762
1.09762 0.00388996 0.762
1.10287 -0.00364766 0.762
1.10287 0.00364766 0.762
1.10786 -0.00341459 0.762
1.10786 0.00341459 0.762
1.1126 -0.0031893 0.762
1.1126 0.0031893 0.762
1.1171 -0.00297373 0.762
1.1171 0.00297373 0.762
1.12136 -0.0027695 0.762
1.12136 0.0027695 0.762
1.12539 -0.0025774 0.762
1.12539 0.0025774 0.762
1.12921 -0.00239631 0.762
1.12921 0.00239631 0.762
1.1328 -0.00222545 0.762
1.1328 0.00222545 0.762
1.13619 -0.00206419 0.762
1.13619 0.00206419 0.762
1.13938 -0.001912 0.762
1.13938 0.001912 0.762
1.14238 -0.00176839 0.762
1.14238 0.00176839 0.762
1.1452 -0.00163295 0.762
1.1452 0.00163295 0.762
1.14785 -0.00150547 0.762
1.14785 0.00150547 0.762
1.15033 -0.00138572 0.762
1.15033 0.00138572 0.762
1.15265 -0.00127345 0.762
1.15265 0.00127345 0.762
1.15483 -0.00116835 0.762
1.15483 0.00116835 0.762
1.15686 -0.0010701 0.762
1.15686 0.0010701 0.762
1.15877 -0.000978375 0.762
1.15877 0.000978375 0.762
1.16055 -0.000892821 0.762
1.16055 0.000892821 0.762
1.16221 -0.00081302 0.762
1.16221 0.00081302 0.762
1.16375 -0.000738596 0.762
1.16375 0.000738596 0.762
1.1652 -0.000669215 0.762
1.1652 0.000669215 0.762
1.16655 -0.00060456 0.762
1.16655 0.00060456 0.762
1.1678 -0.00054433 0.762
1.1678 0.00054433 0.762
1.16897 -0.000488242 0.762
1.16897 0.000488242 0.762
1.17006 -0.00043603 0.762
1.17006 0.00043603 0.762
1.17107 -0.00038744 0.762
1.17107 0.00038744 0.762
1.17201 -0.000342234 0.762
1.17201 0.000342234 0.762
1.17289 -0.00030019 0.762
1.17289 0.00030019 0.762
1.17371 -0.000261095 0.762
1.17371 0.000261095 0.762
1.17446 -0.000224754 0.762
1.17446 0.000224754 0.762
1.17517 -0.000190979 0.762
1.17517 0.000190979 0.762
1.17582 -0.000159596 0.762
1.17582 0.000159596 0.762
1.17643 -0.000130443 0.762
1.17643 0.000130443 0.762
1.17699 -0.000103365 0.762
1.17699 0.000103365 0.762
1.17752 -7.82212e-05 0.762
1.17752 7.82212e-05 0.762
1.178 -5.4876e-05 0.762
1.178 5.4876e-05 0.762
1.17846 4.74351e-06 0.762
1.17846 9.48703e-06 0.762
1.17846 -1.42305e-05 0.762
1.17846 1.42305e-05 0.762
1.17846 -1.89741e-05 0.762
1.17846 1.89741e-05 0.762
1.17846 -2.37176e-05 0.762
1.17846 2.37176e-05 0.762
1.17846 -2.84611e-05 0.762
1.17846 2.84611e-05 0.762

LINES 403 1209
2 0 1
2 0 2
2 0 3
2 1 4
2 2 5
2 4 6
2 5 7
2 6 8
2 7 9
2 8 10
2 9 11
2 10 12
2 11 13
2 12 14
2 13 15
2 14 16
2 15 17
2 16 18
2 17 19
2 18 20
2 19 21
2 20 22
2 21 23
2 22 24
2 23 25
2 24 26
2 25 27
2 26 28
2 27 29
2 28 30
2 29 31
2 30 32
2 31 33
2 32 34
2 33 35
2 34 36
2 35 37
2 36 38
2 37 39
2 38 40
2 39 41
2 40 42
2 41 43
2 42 44
2 43 45
2 3 46
2 44 47
2 45 48
2 47 49
2 48 50
2 49 51
2 50 52
2 51 53
2 52 54
2 53 55
2 54 56
2 55 57
2 56 58
2 57 59
2 58 60
2 59 61
2 60 62
2 61 63
2 62 64
2 46 65
2 63 66
2 64 67
2 66 68
2 67 69
2 68 70
2 69 71
2 70 72
2 71 73
2 72 74
2 73 75
2 74 76
2 75 77
2 76 78
2 77 79
2 78 80
2 79 81
2 80 82
2 81 83
2 82 84
2 83 85
2 84 86
2 85 87
2 65 88
2 86 89
2 87 90
2 89 91
2 90 92
2 91 93
2 92 94
2 93 95
2 94 96
2 95 97
2 96 98
2 97 99
2 98 100
2 99 101
2 100 102
2 101 103
2 102 104
2 103 105
2 104 106
2 105 107
2 106 108
2 107 109
2 108 110
2 109 111
2 110 112
2 111 113
2 112 114
2 113 115
2 114 116
2 115 117
2 116 118
2 88 119
2 117 120
2 118 121
2 120 122
2 121 123
2 122 124
2 123 125
2 124 126
2 125 127
2 126 128
2 127 129
2 128 130
2 129 131
2 130 132
2 131 133
2 132 134
2 133 135
2 134 136
2 135 137
2 136 138
2 137 139
2 138 140
2 139 141
2 140 142
2 141 143
2 142 144
2 143 145
2 144 146
2 145 147
2 146 148
2 147 149
2 148 150
2 149 151
2 150 152
2 151 153
2 152 154
2 153 155
2 154 156
2 155 157
2 156 158
2 157 159
2 158 160
2 159 161
2 160 162
2 161 163
2 162 164
2 163 165
2 164 166
2 165 167
2 166 168
2 167 169
2 168 170
2 169 171
2 170 172
2 171 173
2 172 174
2 173 175
2 174 176
2 175 177
2 178 179
2 178 180
2 179 181
2 180 182
2 181 183
2 182 184
2 183 185
2 184 186
2 185 187
2 186 188
2 187 189
2 188 190
2 189 176
2 190 177
2 176 191
2 177 192
2 119 193
2 191 194
2 192 195
2 194 196
2 195 197
2 193 198
2 196 199
2 197 200
2 198 201
2 199 202
2 200 203
2 201 204
2 202 205
2 203 206
2 205 207
2 206 208
2 204 209
2 204 210
2 209 211
2 210 212
2 211 213
2 212 214
2 213 215
2 214 216
2 215 217
2 216 218
2 217 219
2 218 220
2 219 221
2 220 222
2 221 223
2 222 224
2 223 225
2 224 226
2 225 227
2 226 228
2 227 229
2 228 230
2 229 231
2 230 232
2 231 233
2 232 234
2 233 235
2 234 236
2 235 237
2 236 238
2 237 239
2 238 240
2 239 241
2 240 242
2 241 243
2 242 244
2 243 245
2 244 246
2 245 247
2 246 248
2 247 249
2 248 250
2 249 251
2 250 252
2 251 253
2 252 254
2 253 255
2 254 256
2 255 257
2 256 258
2 257 259
2 258 260
2 207 261
2 208 262
2 259 263
2 260 264
2 263 265
2 264 266
2 265 267
2 266 268
2 267 269
2 268 270
2 269 271
2 270 272
2 271 273
2 272 274
2 273 275
2 274 276
2 275 277
2 276 278
2 277 279
2 278 280
2 279 281
2 280 282
2 281 283
2 282 284
2 283 285
2 284 286
2 285 287
2 286 288
2 287 289
2 288 290
2 289 291
2 290 292
2 293 294
2 293 295
2 296 294
2 296 297
2 261 298
2 262 299
2 291 300
2 292 301
2 300 302
2 301 303
2 302 304
2 303 305
2 304 306
2 305 307
2 306 308
2 307 309
2 308 310
2 309 311
2 310 312
2 311 313
2 312 314
2 313 315
2 314 316
2 315 317
2 316 318
2 317 319
2 318 320
2 319 321
2 320 322
2 321 323
2 322 324
2 323 325
2 324 326
2 325 327
2 326 328
2 327 329
2 328 330
2 329 331
2 330 332
2 331 333
2 332 334
2 333 335
2 334 336
2 335 337
2 336 338
2 337 339
2 338 340
2 339 341
2 340 342
2 341 343
2 342 344
2 343 345
2 344 346
2 345 347
2 346 348
2 347 349
2 348 350
2 349 351
2 350 352
2 351 353
2 352 354
2 353 355
2 354 356
2 355 357
2 356 358
2 357 359
2 358 360
2 359 361
2 360 362
2 361 363
2 362 364
2 363 365
2 364 366
2 365 367
2 366 368
2 367 369
2 368 370
2 369 371
2 370 372
2 371 373
2 372 374
2 373 375
2 374 376
2 375 377
2 376 378
2 377 379
2 378 380
2 379 381
2 380 382
2 381 383
2 382 384
2 383 385
2 384 386
2 385 387
2 386 298
2 387 299
2 294 295
2 294 297
2 295 388
2 388 389
2 297 390
2 389 391
2 390 392
2 391 393
2 392 394
2 393 395
2 394 396
2 395 397
2 396 298
2 397 299

